%YAML 1.1
%TAG !u! tag:unity3d.com,2011:
--- !u!114 &11400000
MonoBehaviour:
  m_ObjectHideFlags: 0
  m_CorrespondingSourceObject: {fileID: 0}
  m_PrefabInstance: {fileID: 0}
  m_PrefabAsset: {fileID: 0}
  m_GameObject: {fileID: 0}
  m_Enabled: 1
  m_EditorHideFlags: 0
  m_Script: {fileID: 11500000, guid: 4e9a544888b7dc0428241892214fd8b4, type: 3}
  m_Name: Horsepower
  m_EditorClassIdentifier: 
  icon: {fileID: 21300000, guid: 2e4597e38143cfb4da51746409ce3b7e, type: 3}
  hooks:
  - {fileID: 11400000, guid: d1748e1ae44ba5f42937a7c6f8287a86, type: 2}
  template: {fileID: 11400000, guid: b99490139d950cb40939e21608f37973, type: 2}
  language: {fileID: 11400000, guid: 7b2488d23a68939429707d97a441b1dd, type: 2}
  ingameName: 5
  ingameDescription: 21
  fallbackName: 30
  fallbackDescription: 31
