%YAML 1.1
%TAG !u! tag:unity3d.com,2011:
--- !u!114 &11400000
MonoBehaviour:
  m_ObjectHideFlags: 0
  m_CorrespondingSourceObject: {fileID: 0}
  m_PrefabInstance: {fileID: 0}
  m_PrefabAsset: {fileID: 0}
  m_GameObject: {fileID: 0}
  m_Enabled: 1
  m_EditorHideFlags: 0
  m_Script: {fileID: 11500000, guid: 9d1514134bc4fbd41bb739b1b9a49231, type: 3}
  m_Name: LobbyWood
  m_EditorClassIdentifier: 
  m_DefaultSprite: {fileID: 21300006, guid: d33dc5504f89841448594bc7f9d83693, type: 3}
  m_DefaultGameObject: {fileID: 0}
  m_DefaultColliderType: 2
  m_TilingRules:
  - m_Neighbors: 0000000002000000000000000200000002000000000000000200000000000000
    m_Sprites:
    - {fileID: 21300006, guid: b90aaacc13b90934aa17210e8535658a, type: 3}
    m_GameObject: {fileID: 0}
    m_AnimationSpeed: 1
    m_PerlinScale: 0.5
    m_RuleTransform: 0
    m_Output: 0
    m_ColliderType: 2
    m_RandomTransform: 0
  - m_Neighbors: 0000000001000000000000000100000001000000000000000100000002000000
    m_Sprites:
    - {fileID: 21300000, guid: d33dc5504f89841448594bc7f9d83693, type: 3}
    m_GameObject: {fileID: 0}
    m_AnimationSpeed: 1
    m_PerlinScale: 0.5
    m_RuleTransform: 0
    m_Output: 0
    m_ColliderType: 2
    m_RandomTransform: 0
  - m_Neighbors: 0000000001000000000000000100000001000000020000000100000000000000
    m_Sprites:
    - {fileID: 21300002, guid: d33dc5504f89841448594bc7f9d83693, type: 3}
    m_GameObject: {fileID: 0}
    m_AnimationSpeed: 1
    m_PerlinScale: 0.5
    m_RuleTransform: 0
    m_Output: 0
    m_ColliderType: 2
    m_RandomTransform: 0
  - m_Neighbors: 0000000001000000020000000100000001000000000000000100000000000000
    m_Sprites:
    - {fileID: 21300036, guid: d33dc5504f89841448594bc7f9d83693, type: 3}
    m_GameObject: {fileID: 0}
    m_AnimationSpeed: 1
    m_PerlinScale: 0.5
    m_RuleTransform: 0
    m_Output: 0
    m_ColliderType: 2
    m_RandomTransform: 0
  - m_Neighbors: 0200000001000000000000000100000001000000000000000100000000000000
    m_Sprites:
    - {fileID: 21300038, guid: d33dc5504f89841448594bc7f9d83693, type: 3}
    m_GameObject: {fileID: 0}
    m_AnimationSpeed: 1
    m_PerlinScale: 0.5
    m_RuleTransform: 0
    m_Output: 0
    m_ColliderType: 2
    m_RandomTransform: 0
  - m_Neighbors: 0000000001000000000000000100000001000000000000000100000000000000
    m_Sprites:
    - {fileID: 21300024, guid: d33dc5504f89841448594bc7f9d83693, type: 3}
    m_GameObject: {fileID: 0}
    m_AnimationSpeed: 1
    m_PerlinScale: 0.5
    m_RuleTransform: 0
    m_Output: 0
    m_ColliderType: 2
    m_RandomTransform: 0
  - m_Neighbors: 0000000002000000000000000200000001000000000000000100000000000000
    m_Sprites:
    - {fileID: 21300004, guid: d33dc5504f89841448594bc7f9d83693, type: 3}
    m_GameObject: {fileID: 0}
    m_AnimationSpeed: 1
    m_PerlinScale: 0.5
    m_RuleTransform: 0
    m_Output: 0
    m_ColliderType: 2
    m_RandomTransform: 0
  - m_Neighbors: 0000000002000000000000000100000001000000000000000100000000000000
    m_Sprites:
    - {fileID: 21300006, guid: d33dc5504f89841448594bc7f9d83693, type: 3}
    m_GameObject: {fileID: 0}
    m_AnimationSpeed: 1
    m_PerlinScale: 0.5
    m_RuleTransform: 0
    m_Output: 0
    m_ColliderType: 2
    m_RandomTransform: 0
  - m_Neighbors: 0000000002000000000000000100000002000000000000000100000000000000
    m_Sprites:
    - {fileID: 21300008, guid: d33dc5504f89841448594bc7f9d83693, type: 3}
    m_GameObject: {fileID: 0}
    m_AnimationSpeed: 1
    m_PerlinScale: 0.5
    m_RuleTransform: 0
    m_Output: 0
    m_ColliderType: 2
    m_RandomTransform: 0
  - m_Neighbors: 0000000001000000000000000100000002000000000000000100000000000000
    m_Sprites:
    - {fileID: 21300026, guid: d33dc5504f89841448594bc7f9d83693, type: 3}
    m_GameObject: {fileID: 0}
    m_AnimationSpeed: 1
    m_PerlinScale: 0.5
    m_RuleTransform: 0
    m_Output: 0
    m_ColliderType: 2
    m_RandomTransform: 0
  - m_Neighbors: 0000000001000000000000000200000001000000000000000200000000000000
    m_Sprites:
    - {fileID: 21300040, guid: d33dc5504f89841448594bc7f9d83693, type: 3}
    m_GameObject: {fileID: 0}
    m_AnimationSpeed: 1
    m_PerlinScale: 0.5
    m_RuleTransform: 0
    m_Output: 0
    m_ColliderType: 2
    m_RandomTransform: 0
  - m_Neighbors: 0000000001000000000000000100000001000000000000000200000000000000
    m_Sprites:
    - {fileID: 21300048, guid: d33dc5504f89841448594bc7f9d83693, type: 3}
    m_GameObject: {fileID: 0}
    m_AnimationSpeed: 1
    m_PerlinScale: 0.5
    m_RuleTransform: 0
    m_Output: 0
    m_ColliderType: 2
    m_RandomTransform: 0
  - m_Neighbors: 0000000001000000000000000100000002000000000000000200000000000000
    m_Sprites:
    - {fileID: 21300050, guid: d33dc5504f89841448594bc7f9d83693, type: 3}
    m_GameObject: {fileID: 0}
    m_AnimationSpeed: 1
    m_PerlinScale: 0.5
    m_RuleTransform: 0
    m_Output: 0
    m_ColliderType: 2
    m_RandomTransform: 0
  - m_Neighbors: 0000000001000000000000000200000001000000000000000100000000000000
    m_Sprites:
    - {fileID: 21300022, guid: d33dc5504f89841448594bc7f9d83693, type: 3}
    m_GameObject: {fileID: 0}
    m_AnimationSpeed: 1
    m_PerlinScale: 0.5
    m_RuleTransform: 0
    m_Output: 0
    m_ColliderType: 2
    m_RandomTransform: 0
  - m_Neighbors: 0000000002000000000000000200000001000000000000000200000000000000
    m_Sprites:
    - {fileID: 21300000, guid: b90aaacc13b90934aa17210e8535658a, type: 3}
    m_GameObject: {fileID: 0}
    m_AnimationSpeed: 1
    m_PerlinScale: 0.5
    m_RuleTransform: 0
    m_Output: 0
    m_ColliderType: 2
    m_RandomTransform: 0
  - m_Neighbors: 0000000002000000000000000100000001000000000000000200000000000000
    m_Sprites:
    - {fileID: 21300002, guid: b90aaacc13b90934aa17210e8535658a, type: 3}
    m_GameObject: {fileID: 0}
    m_AnimationSpeed: 1
    m_PerlinScale: 0.5
    m_RuleTransform: 0
    m_Output: 0
    m_ColliderType: 2
    m_RandomTransform: 0
  - m_Neighbors: 0000000002000000000000000100000002000000000000000200000000000000
    m_Sprites:
    - {fileID: 21300004, guid: b90aaacc13b90934aa17210e8535658a, type: 3}
    m_GameObject: {fileID: 0}
    m_AnimationSpeed: 1
    m_PerlinScale: 0.5
    m_RuleTransform: 0
    m_Output: 0
    m_ColliderType: 2
    m_RandomTransform: 0
  - m_Neighbors: 0200000002000000020000000200000002000000020000000200000002000000
    m_Sprites:
    - {fileID: 21300006, guid: b90aaacc13b90934aa17210e8535658a, type: 3}
    m_GameObject: {fileID: 0}
    m_AnimationSpeed: 1
    m_PerlinScale: 0.5
    m_RuleTransform: 0
    m_Output: 0
    m_ColliderType: 2
    m_RandomTransform: 0
