%YAML 1.1
%TAG !u! tag:unity3d.com,2011:
--- !u!114 &11400000
MonoBehaviour:
  m_ObjectHideFlags: 0
  m_CorrespondingSourceObject: {fileID: 0}
  m_PrefabInstance: {fileID: 0}
  m_PrefabAsset: {fileID: 0}
  m_GameObject: {fileID: 0}
  m_Enabled: 1
  m_EditorHideFlags: 0
  m_Script: {fileID: 11500000, guid: 31768ea5682ad7e46a1a5d84d9df3bfc, type: 3}
  m_Name: ThrownSword
  m_EditorClassIdentifier: 
  icon: {fileID: 21300000, guid: dd69596b653ea1e4d8728ea78fa80b56, type: 3}
  attackType: 4
  canShoot: 1
  canMove: 1
  isMelee: 0
  isPunch: 0
  canAttackWhileMoving: 1
  autoShoot: 0
  damageOnDash: 0
  projectilePrefab: {fileID: 1867495016057172, guid: 9716b40760e7d1c4ba5533809e8a4853,
    type: 3}
  chargedProjectilePrefab: {fileID: 1867495016057172, guid: 3a078514a983a0b41855fb9707d7f810,
    type: 3}
  customPalette: {fileID: 2800000, guid: 2b168a560e86c0945bc040fd749c1339, type: 3}
  customColor: {r: 0.60113245, g: 0.1966002, b: 0.8867924, a: 1}
