%YAML 1.1
%TAG !u! tag:unity3d.com,2011:
--- !u!114 &11400000
MonoBehaviour:
  m_ObjectHideFlags: 0
  m_CorrespondingSourceObject: {fileID: 0}
  m_PrefabInstance: {fileID: 0}
  m_PrefabAsset: {fileID: 0}
  m_GameObject: {fileID: 0}
  m_Enabled: 1
  m_EditorHideFlags: 0
  m_Script: {fileID: 11500000, guid: 411a0187aa285db488ce5ac681f1e68b, type: 3}
  m_Name: WithDogEnemyList
  m_EditorClassIdentifier: 
  fullList:
  - {fileID: 1739017642937010, guid: 4650b6e8ae73abc4cbb4af99cbe385ef, type: 3}
  - {fileID: 1857115433288866, guid: 22c0114697b89c846be35744a662883e, type: 3}
  - {fileID: 1994528044438482, guid: c5f853325e7ade04e85c7663046588fd, type: 3}
  - {fileID: 1563814069383038, guid: c7ff47e0255cbf94492fa82f5a301b4d, type: 3}
