%YAML 1.1
%TAG !u! tag:unity3d.com,2011:
--- !u!241 &24100000
AudioMixerController:
  m_ObjectHideFlags: 0
  m_CorrespondingSourceObject: {fileID: 0}
  m_PrefabInstance: {fileID: 0}
  m_PrefabAsset: {fileID: 0}
  m_Name: Ambience
  m_OutputGroup: {fileID: 0}
  m_MasterGroup: {fileID: 24300002}
  m_Snapshots:
  - {fileID: 24500006}
  m_StartSnapshot: {fileID: 24500006}
  m_SuspendThreshold: -80
  m_EnableSuspend: 1
  m_UpdateMode: 0
  m_ExposedParameters:
  - guid: 39154d0313cbff4438788614bac425db
    name: MyExposedParam
  m_AudioMixerGroupViews:
  - guids:
    - 15ca67e31bcda774db90deba8b482576
    name: View
  m_CurrentViewIndex: 0
  m_TargetSnapshot: {fileID: 24500006}
--- !u!243 &24300002
AudioMixerGroupController:
  m_ObjectHideFlags: 0
  m_CorrespondingSourceObject: {fileID: 0}
  m_PrefabInstance: {fileID: 0}
  m_PrefabAsset: {fileID: 0}
  m_Name: Master
  m_AudioMixer: {fileID: 24100000}
  m_GroupID: 15ca67e31bcda774db90deba8b482576
  m_Children: []
  m_Volume: 39154d0313cbff4438788614bac425db
  m_Pitch: 181afcfe55eff85458b13f3ae0b41b95
  m_Effects:
  - {fileID: 24400004}
  - {fileID: 244577187243815266}
  - {fileID: 244615039375446966}
  m_UserColorIndex: 0
  m_Mute: 0
  m_Solo: 0
  m_BypassEffects: 0
--- !u!244 &24400004
AudioMixerEffectController:
  m_ObjectHideFlags: 3
  m_CorrespondingSourceObject: {fileID: 0}
  m_PrefabInstance: {fileID: 0}
  m_PrefabAsset: {fileID: 0}
  m_Name: 
  m_EffectID: e78b7ac2ccd27f84c9e5928a08e4fcd7
  m_EffectName: Attenuation
  m_MixLevel: e6ac0963beaaac44d9b1b5cf81e5e7d9
  m_Parameters: []
  m_SendTarget: {fileID: 0}
  m_EnableWetMix: 0
  m_Bypass: 0
--- !u!245 &24500006
AudioMixerSnapshotController:
  m_ObjectHideFlags: 0
  m_CorrespondingSourceObject: {fileID: 0}
  m_PrefabInstance: {fileID: 0}
  m_PrefabAsset: {fileID: 0}
  m_Name: Snapshot
  m_AudioMixer: {fileID: 24100000}
  m_SnapshotID: e6c99fe1a57d94e4d87d72925f55a8a8
  m_FloatValues:
    16493680ce52d1a40b98f2d47449d79b: 40.1
    39154d0313cbff4438788614bac425db: -21.3
    f7fead230d53a314dbe56242fb97bb7f: 0.86
    6013285460481574d8f0d367ec964be0: 1.18
    81801f5412e0c3e4f9ad292c5bfcee38: 1893
    c2adf625ec07c9d469e0a7f630652e4b: -9487
    1de726758c1fed0428b5ba4eaf801729: 0.0207
    2c1a2b0642247654995cd91af453ff32: 0.014
    55ca6d6a26b8c0d4292781eda9d087dc: 1585
    8365945bddbe15e4294bc51dddbcea97: -4127
    d56998acba439e249bf5467a882646d3: 43.4
    caed135edfed8fb4e9349cd3e42252e3: 0
    cb4549ae81b933144ba3711c12a9b7fd: -4061
    7499f54fbcdc34a4cb41b06aab0e82be: 7.7
    d71aaf8fcc9e8a540a1a4071d3e2d2a1: 0.9
  m_TransitionOverrides: {}
--- !u!244 &244577187243815266
AudioMixerEffectController:
  m_ObjectHideFlags: 3
  m_CorrespondingSourceObject: {fileID: 0}
  m_PrefabInstance: {fileID: 0}
  m_PrefabAsset: {fileID: 0}
  m_Name: 
  m_EffectID: a05deacaeae6e8f468176a5c83d2aee7
  m_EffectName: Pitch Shifter
  m_MixLevel: 989eb8b74a015774285ca0e72958ce7a
  m_Parameters:
  - m_ParameterName: Pitch
    m_GUID: f7fead230d53a314dbe56242fb97bb7f
  - m_ParameterName: FFT size
    m_GUID: 81801f5412e0c3e4f9ad292c5bfcee38
  - m_ParameterName: Overlap
    m_GUID: 7499f54fbcdc34a4cb41b06aab0e82be
  - m_ParameterName: Max channels
    m_GUID: c886906522d3ce5478b3408837984c59
  m_SendTarget: {fileID: 0}
  m_EnableWetMix: 0
  m_Bypass: 0
--- !u!244 &244615039375446966
AudioMixerEffectController:
  m_ObjectHideFlags: 3
  m_CorrespondingSourceObject: {fileID: 0}
  m_PrefabInstance: {fileID: 0}
  m_PrefabAsset: {fileID: 0}
  m_Name: 
  m_EffectID: 216b43dea798d2b47a69be2760e5351a
  m_EffectName: Lowpass
  m_MixLevel: 89f56d0d275688b4dab95cb3a9f9476e
  m_Parameters:
  - m_ParameterName: Cutoff freq
    m_GUID: 55ca6d6a26b8c0d4292781eda9d087dc
  - m_ParameterName: Resonance
    m_GUID: 6013285460481574d8f0d367ec964be0
  m_SendTarget: {fileID: 0}
  m_EnableWetMix: 0
  m_Bypass: 0
