%YAML 1.1
%TAG !u! tag:unity3d.com,2011:
--- !u!114 &11400000
MonoBehaviour:
  m_ObjectHideFlags: 0
  m_CorrespondingSourceObject: {fileID: 0}
  m_PrefabInstance: {fileID: 0}
  m_PrefabAsset: {fileID: 0}
  m_GameObject: {fileID: 0}
  m_Enabled: 1
  m_EditorHideFlags: 0
  m_Script: {fileID: 11500000, guid: 1f095c1f15dbaad4ab19b4938d21f9f7, type: 3}
  m_Name: boss
  m_EditorClassIdentifier: 
  stringKeys:
  - NPC_BOSS_1_BOSS
  - NPC_BOSS_1_NPC
  - NPC_BOSS_2_BOSS
  - NPC_BOSS_2_NPC
  - NPC_BOSS_3_BOSS
  - NPC_BOSS_3_NPC
  - NPC_BOSS_4_BOSS
  - NPC_BOSS_4_NPC
  translations:
  - key: pt_BR
    table: {fileID: 11400000, guid: e2233d152dab1f14582cfab8161595ed, type: 2}
  - key: en_US
    table: {fileID: 11400000, guid: 2835e15676eb6d742b11cd36369a18ba, type: 2}
