%YAML 1.1
%TAG !u! tag:unity3d.com,2011:
--- !u!114 &11400000
MonoBehaviour:
  m_ObjectHideFlags: 0
  m_CorrespondingSourceObject: {fileID: 0}
  m_PrefabInstance: {fileID: 0}
  m_PrefabAsset: {fileID: 0}
  m_GameObject: {fileID: 0}
  m_Enabled: 1
  m_EditorHideFlags: 0
  m_Script: {fileID: 11500000, guid: c06966633eba391409850ccf310278c4, type: 3}
  m_Name: controllers_en_US
  m_EditorClassIdentifier: 
  language: English
  template: {fileID: 11400000, guid: 3b85e7fb16453fe46b4022530ea2b407, type: 2}
  translatedTexts:
  - Punch
  - Dash
  - Jump
  - Pause/inventory
  - Move/action (up)
